{
  "nginx": "nginx:stable",
  "addonResizer": "k8s.gcr.io/addon-resizer:1.8.4",
  "certManagerCAInjector": "quay.io/jetstack/cert-manager-cainjector:v1.2.0",
  "certManagerController": "quay.io/jetstack/cert-manager-controller:v1.2.0",
  "clickhouse": "yandex/clickhouse-server:21.12.3.32",
  "clickhouseOperator": "altinity/clickhouse-operator:0.18.2",
  "clickhouseOperatorExporter": "altinity/metrics-exporter:0.18.2",
  "configApi": "opstrace/config-api:8c5f18eb7863851fde27132e7f7bb0babe3b7dba",
  "cortex": "cortexproject/cortex:master-74055d8",
  "cortexOperator": "opstrace/cortex-operator:f379a1d",
  "cortexApiProxy": "opstrace/cortex-api:8c5f18eb7863851fde27132e7f7bb0babe3b7dba",
  "ddApi": "opstrace/ddapi:8c5f18eb7863851fde27132e7f7bb0babe3b7dba",
  "exporterAzure": "opstrace/azure_metrics_exporter:4f85a01",
  "exporterBlackbox": "prom/blackbox-exporter:v0.18.0",
  "exporterCloudwatch": "prom/cloudwatch-exporter:cloudwatch_exporter-0.10.0",
  "exporterStackdriver": "prometheuscommunity/stackdriver-exporter:v0.11.0",
  "externalDNS": "k8s.gcr.io/external-dns/external-dns:v0.7.4",
  "gatekeeper": "opstrace/gatekeeper:8c5f18eb7863851fde27132e7f7bb0babe3b7dba",
  "grafana": "opstrace/grafana:v0.0.0",
  "jaegerAllInOne": "jaegertracing/all-in-one:1.30",
  "jaegerClickhouse": "ghcr.io/jaegertracing/jaeger-clickhouse:0.10.0",
  "jaegerOperator": "jaegertracing/jaeger-operator:1.29.1",
  "kubeRBACProxy": "quay.io/brancz/kube-rbac-proxy:v0.8.0",
  "kubeStateMetrics": "quay.io/coreos/kube-state-metrics:v1.7.2",
  "localVolumeProvisioner": "quay.io/external_storage/local-volume-provisioner:v2.2.0",
  "memcached": "memcached:1.6.9-alpine",
  "nginxController": "k8s.gcr.io/ingress-nginx/controller:v0.41.2",
  "nodeExporter": "quay.io/prometheus/node-exporter:v0.18.1",
  "prometheus": "quay.io/prometheus/prometheus:v2.25.1",
  "prometheusAdapter": "quay.io/coreos/k8s-prometheus-adapter-amd64:v0.4.1",
  "prometheusConfigReloader": "quay.io/prometheus-operator/prometheus-config-reloader:v0.46.0",
  "prometheusOperator": "quay.io/prometheus-operator/prometheus-operator:v0.46.0",
  "graphqlEngine": "opstrace/graphql:86e2a261c7b61c8aef047dd43b61d8f9",
  "app": "opstrace/app:86e2a261c7b61c8aef047dd43b61d8f9",
  "redis": "bitnami/redis:6.0.9",
  "postgresClient": "tmaier/postgresql-client@sha256:3702d3bff09b18e1d173cdf5887d6e4fea5feac0a521becf4a27559992e44ff3",
  "tracingApi": "opstrace/tracing-api:8c5f18eb7863851fde27132e7f7bb0babe3b7dba"
}
